06: Regular Expressions
…
You can also use str_detect() in conjunction with group_by(), summarize() etc.

sum() will return number of strings which have pattern

mean() ill return proportion of strings which have pattern

E.g. proportion of names per year that have an ‘x’

babynames|> 
  group_by(year)|>
  summarize(prop_x = mean(str_detect(name, 'x')))|>
  arrange(by = desc(prop_x))

# A tibble: 138 × 2
    year prop_x
   <dbl>  <dbl>
 1  2016 0.0163
 2  2017 0.0159
 3  2015 0.0154
 4  2014 0.0146
 5  2013 0.0145
 6  2012 0.0136
 7  2011 0.0130
 8  2010 0.0126
 9  2009 0.0118
10  2007 0.0108
# ℹ 128 more rows
…
[1] │ <aba>b<aba>

Counting vowels and constants in baby names

Can use str_count() with mutate, i.e. computing number of vowels/consonants in baby names:

babynames|>
  count(name)|>
  mutate(
    vowels = str_count(name, '[aeiou]'),
    consonants = str_count(name, '[^aeiou]')
  )

# A tibble: 97,310 × 4
   name          n vowels consonants
   <chr>     <int>  <int>      <int>
 1 Aaban        10      2          3
 2 Aabha         5      2          3
 3 Aabid         2      2          3
 4 Aabir         1      2          3
 5 Aabriella     5      4          5
 6 Aada          1      2          2
 7 Aadam        26      2          3
 8 Aadan        11      2          3
 9 Aadarsh      17      2          5
10 Aaden        18      2          3
# ℹ 97,300 more rows
…
