Hypothesis testing with randomization
…
Study (1970s)

48 male bank supervisors were asked to assume the role of the personnel director of a bank.

Each supervisor was given a personnel file to judge whether the person should be promoted to a branch manager position.

The files given to the supervisor were identical, except that half of the files indicated the candidate identified as male and the other half indicated the candidate identified as female.

These files were randomly assigned to the bank managers.

Data

sex_discrimination

# A tibble: 48 × 2
  sex   decision
  <fct> <fct>   
1 male  promoted
2 male  promoted
3 male  promoted
4 male  promoted
5 male  promoted
6 male  promoted
7 male  promoted
8 male  promoted
9 male  promoted
# ℹ 39 more rows
…
Then if we randomly shuffled all of the labels of “male” and “female”, any difference in promotion rates would be due to chance.

Let’s now shuffle the labels of male / female among the 48 study subjects.

How to code a random shuffle? sample(x) permutes the values in a vector x.

set.seed(37)  # to enable reproducibility of "random" outcomes
sex_disc_rand_1 <- tibble(
  sex = sample(sex_discrimination$sex),  # shuffled version of `sex` column in `sex_discrimination`
  decision = sex_discrimination$decision
)
sex_disc_rand_1

# A tibble: 48 × 2
  sex    decision
  <fct>  <fct>   
1 female promoted
2 male   promoted
3 male   promoted
4 female promoted
5 female promoted
6 female promoted
7 female promoted
8 male   promoted
9 male   promoted
# ℹ 39 more rows
…
We could code this procedure ourselves, but let’s use openintro functions:

set.seed(37)
shuff_df <- sex_discrimination |>
  specify(decision ~ sex, success = "promoted") |>
  hypothesize(null = "independence") |>
  generate(reps = 10000, type = "permute") |>
  calculate(stat = "diff in props", order = c("male", "female"))
shuff_df

Response: decision (factor)
Explanatory: sex (factor)
Null Hypothesis: indepe...
# A tibble: 10,000 × 2
  replicate    stat
      <int>   <dbl>
1         1 -0.0417
2         2  0.0417
3         3 -0.125 
4         4 -0.208 
5         5  0.0417
6         6 -0.125 
7         7  0.0417
8         8 -0.292 
9         9  0.125 
# ℹ 9,991 more rows
…
Not buy this entertaining video.

Remaining 75 students were placed in treatment group, they saw:

Buy this entertaining video.

Not buy this entertaining video. Keep the $14.99 for other purchases.

Data

Dataset: opportunity_cost in openintro

opportunity_cost

# A tibble: 150 × 2
  group   decision 
  <fct>   <fct>    
1 control buy video
2 control buy video
3 control buy video
4 control buy video
5 control buy video
6 control buy video
7 control buy video
8 control buy video
9 control buy video
# ℹ 141 more rows
…
Now repeat 10000 times; plot results

set.seed(25)
opportunity_cost_rand_dist <- opportunity_cost |>
  specify(decision ~ group, success = "not buy video") |>
  hypothesize(null = "independence") |>
  generate(reps = 10000, type = "permute") |>
  calculate(stat = "diff in props", order = c("treatment", "control")) |>
  mutate(stat = round(stat, 3))
opportunity_cost_rand_dist

Response: decision (factor)
Explanatory: group (factor)
Null Hypothesis: inde...
# A tibble: 10,000 × 2
  replicate   stat
      <int>  <dbl>
1         1  0.04 
2         2  0.12 
3         3 -0.013
4         4 -0.12 
5         5  0.04 
6         6 -0.067
7         7  0.04 
8         8 -0.04 
9         9  0.04 
# ℹ 9,991 more rows
…
