Inference for a single proportion
…
Then the \(\#\) of complications follows a binomial distribution with parameters \(n=62\) and \(p=0.1\). This is denoted as Binomial(n,p).

More generally, Binomial(n,p) models the number of successes in \(n\) independent trials when each trial has probability \(p\) of success.

To create the 10,000 bootstrap proportions, use: rbinom(10000, n, p)

This generates a vector of length 10000, where each component is the outcome of n where probability of success in each trial is p

To convert number of successes to proportion, need to divide by \(\#\) of trials

n_successes <- rbinom(10000, 62, 0.1)
tibble(stat = n_successes / 62)

# A tibble: 10,000 × 1
    stat
   <dbl>
1 0.129 
2 0.145 
3 0.0968
4 0.113 
5 0.129 
6 0.0323
7 0.0645
8 0.0968
9 0.0968
# ℹ 9,991 more rows
…
