09: Functions
…
# A tibble: 1 × 6
    min  mean median   max      n n_miss
  <dbl> <dbl>  <dbl> <dbl>  <int>  <int>
1    17 1040.    872  4983 336776      0

Embracing

We can supply grouped data:

flights |> 
  group_by(year, month, day) |> 
  summary6(distance)

# A tibble: 365 × 9
    year month   day   min  mean median   max     n n_miss
   <int> <int> <int> <dbl> <dbl>  <dbl> <dbl> <int>  <int>
 1  2013     1     1    94 1077.    946  4983   842      0
 2  2013     1     2    94 1053.    944  4983   943      0
 3  2013     1     3    80 1037.    937  4983   914      0
 4  2013     1     4    80 1032.    937  4983   915      0
 5  2013     1     5    80 1068.    950  4983   720      0
 6  2013     1     6    80 1052.    944  4983   832      0
 7  2013     1     7    80  998.    820  4983   933      0
 8  2013     1     8    80  986.    764  4983   899      0
 9  2013     1     9    80  981.    764  4983   902      0
10  2013     1    10    80  993.    765  4983   932      0
# ℹ 355 more rows

Embracing

We can even do computations on top of variables:

flights |> 
  group_by(year, month, day) |> 
  summary6(log10(distance))

# A tibble: 365 × 9
    year month   day   min  mean median   max     n n_miss
   <int> <int> <int> <dbl> <dbl>  <dbl> <dbl> <int>  <int>
 1  2013     1     1  1.97  2.92   2.98  3.70   842      0
 2  2013     1     2  1.97  2.91   2.97  3.70   943      0
 3  2013     1     3  1.90  2.91   2.97  3.70   914      0
 4  2013     1     4  1.90  2.90   2.97  3.70   915      0
 5  2013     1     5  1.90  2.91   2.98  3.70   720      0
 6  2013     1     6  1.90  2.91   2.97  3.70   832      0
 7  2013     1     7  1.90  2.88   2.91  3.70   933      0
 8  2013     1     8  1.90  2.87   2.88  3.70   899      0
 9  2013     1     9  1.90  2.87   2.88  3.70   902      0
10  2013     1    10  1.90  2.88   2.88  3.70   932      0
# ℹ 355 more rows

Embracing

We can supply conditions as well:

unique_where <- function(df, condition, var) {
  df |> 
    filter({{ condition }}) |> 
    distinct({{ var }}) |>  # Keep only unique/distinct rows from a data frame. 
    arrange({{ var }})
}

flights |> unique_where(month == 12, dest)

# A tibble: 96 × 1
   dest 
   <chr>
 1 ABQ  
 2 ALB  
 3 ATL  
 4 AUS  
 5 AVL  
 6 BDL  
 7 BGR  
 8 BHM  
 9 BNA  
10 BOS  
# ℹ 86 more rows
…
Examples: using other data sets

Group diamonds by cut, clarity, and color, then count the number of observations and compute the mean of each numeric column.

diamonds |>
  group_by(cut, clarity, color) |>
  summarize(num = n(), across(where(is.numeric), mean))

`summarise()` has grouped output by 'cut', 'clarity'. You can override using
the `.groups` argument.

# A tibble: 276 × 11
# Groups:   cut, clarity [40]
   cut   clarity color   num carat depth table price     x     y     z
   <ord> <ord>   <ord> <dbl> <dbl> <dbl> <dbl> <dbl> <dbl> <dbl> <dbl>
 1 Fair  I1      D         4 1.88   65.6  56.8 7383   7.52  7.42  4.90
 2 Fair  I1      E         9 0.969  65.6  58.1 2095.  6.17  6.06  4.01
 3 Fair  I1      F        35 1.02   65.7  58.4 2544.  6.14  6.04  4.00
 4 Fair  I1      G        53 1.23   65.3  57.7 3187.  6.52  6.43  4.23
 5 Fair  I1      H        52 1.50   65.8  58.4 4213.  6.96  6.86  4.55
 6 Fair  I1      I        34 1.32   65.7  58.4 3501   6.76  6.65  4.41
 7 Fair  I1      J        23 1.99   66.5  57.9 5795.  7.55  7.46  4.99
 8 Fair  SI2     D        56 1.02   64.7  58.6 4355.  6.24  6.17  4.01
 9 Fair  SI2     E        78 1.02   63.4  59.5 4172.  6.28  6.22  3.96
10 Fair  SI2     F        89 1.08   63.8  59.5 4520.  6.36  6.30  4.04
# ℹ 266 more rows
…
