01: Introduction and Review of R
…
Data frames and tibbles

Tibble (how is the output different from the equivalent data frame?)

library(tibble)
tibble(mtcars)

# A tibble: 32 × 11
     mpg   cyl  disp    hp  drat    wt  qsec    vs    am  gear  carb
   <dbl> <dbl> <dbl> <dbl> <dbl> <dbl> <dbl> <dbl> <dbl> <dbl> <dbl>
 1  21       6  160    110  3.9   2.62  16.5     0     1     4     4
 2  21       6  160    110  3.9   2.88  17.0     0     1     4     4
 3  22.8     4  108     93  3.85  2.32  18.6     1     1     4     1
 4  21.4     6  258    110  3.08  3.22  19.4     1     0     3     1
 5  18.7     8  360    175  3.15  3.44  17.0     0     0     3     2
 6  18.1     6  225    105  2.76  3.46  20.2     1     0     3     1
 7  14.3     8  360    245  3.21  3.57  15.8     0     0     3     4
 8  24.4     4  147.    62  3.69  3.19  20       1     0     4     2
 9  22.8     4  141.    95  3.92  3.15  22.9     1     0     4     2
10  19.2     6  168.   123  3.92  3.44  18.3     1     0     4     4
# ℹ 22 more rows

Let’s look at a larger data set

library(nycflights13) # loads the `flights` tibble into environment
flights

# A tibble: 336,776 × 19
    year month   day dep_time sched_dep_time dep_delay arr_time sched_arr_time
   <int> <int> <int>    <int>          <int>     <dbl>    <int>          <int>
 1  2013     1     1      517            515         2      830            819
 2  2013     1     1      533            529         4      850            830
 3  2013     1     1      542            540         2      923            850
 4  2013     1     1      544            545        -1     1004           1022
 5  2013     1     1      554            600        -6      812            837
 6  2013     1     1      554            558        -4      740            728
 7  2013     1     1      555            600        -5      913            854
 8  2013     1     1      557            600        -3      709            723
 9  2013     1     1      557            600        -3      838            846
10  2013     1     1      558            600        -2      753            745
# ℹ 336,766 more rows
# ℹ 11 more variables: arr_delay <dbl>, carrier <chr>, flight <int>,
#   tailnum <chr>, origin <chr>, dest <chr>, air_time <dbl>, distance <dbl>,
#   hour <dbl>, minute <dbl>, time_hour <dttm>
…
df[, "COLUMN"]

flights[, "distance"]  # returns tibble

# A tibble: 336,776 × 1
   distance
      <dbl>
 1     1400
 2     1416
 3     1089
 4     1576
 5      762
 6      719
 7     1065
 8      229
 9      944
10      733
# ℹ 336,766 more rows
…
To return data from a column in a dataframe/tibble

Can also access columns using integer indices using df[, column_number]

# mtcars is a data frame
mtcars[, 2]  # returns 2nd column of mtcars as a vector

 [1] 6 6 4 6 8 6 8 4 4 6 6 8 8 8 8 8 8 4 4 4 4 8 8 8 8 4 4 4 8 6 8 4

# flights is a tibble
flights[, 2]  # returns 2nd column of flights as a tibble

# A tibble: 336,776 × 1
   month
   <int>
 1     1
 2     1
 3     1
 4     1
 5     1
 6     1
 7     1
 8     1
 9     1
10     1
# ℹ 336,766 more rows

Check-in

Q: From what was covered in this lecture so far, how can I get the dep_time and sched_dep_time columns from the flights tibble?

Check-in

Q: From what was covered in this lecture so far, how can I get the dep_time and sched_dep_time columns from the flights tibble?

flights[, c("dep_time", "sched_dep_time")]

# A tibble: 336,776 × 2
   dep_time sched_dep_time
      <int>          <int>
 1      517            515
 2      533            529
 3      542            540
 4      544            545
 5      554            600
 6      554            558
 7      555            600
 8      557            600
 9      557            600
10      558            600
# ℹ 336,766 more rows
…
