12: linear regression
…
Predicting possum head lengths

We’ll look into the possum dataset which has measurements of possum body lengths and head lengths

possum

# A tibble: 104 × 8
    site pop   sex     age head_l skull_w total_l tail_l
   <int> <fct> <fct> <int>  <dbl>   <dbl>   <dbl>  <dbl>
 1     1 Vic   m         8   94.1    60.4    89     36  
 2     1 Vic   f         6   92.5    57.6    91.5   36.5
 3     1 Vic   f         6   94      60      95.5   39  
 4     1 Vic   f         6   93.2    57.1    92     38  
 5     1 Vic   f         2   91.5    56.3    85.5   36  
 6     1 Vic   f         1   93.1    54.8    90.5   35.5
 7     1 Vic   m         2   95.3    58.2    89.5   36  
 8     1 Vic   f         6   94.8    57.6    91     37  
 9     1 Vic   f         9   93.4    56.3    91.5   37  
10     1 Vic   f         6   91.8    58      89.5   37.5
# ℹ 94 more rows
…
