Hypothesis testing with randomization
…
---

.pull-left[
### Example: college student savings

Let's consider a study where we ask whether telling a college student that they can save money for later purchases will make them spend less now

-   `\(H_0:\)` **Null hypothesis**. Reminding students that they can save money for later purchases will not have any impact on students' spending decisions.
-   `\(H_A:\)` **Alternative hypothesis**. Reminding students that they can save money for later purchases will reduce the chance they will continue with a purchase.
* Dataset: `opportunity_cost` in *openintro*

``` r
opportunity_cost
#> # A tibble: 150 × 2
#>   group   decision 
#>   <fct>   <fct>    
#> 1 control buy video
#> 2 control buy video
#> 3 control buy video
#> 4 control buy video
#> 5 control buy video
#> 6 control buy video
#> # ℹ 144 more rows
```
…
